B;2018-11-26;0.16;2018-12-10
CRAI;2018-11-26;0.2;2018-12-21
CRI;2018-11-26;0.45;2018-12-14
DSWL;2018-11-26;0.06;2018-12-18
EDUC;2018-11-26;0.05;2018-12-13
ETM;2018-11-26;0.09;2018-12-14
GPRE;2018-11-26;0.12;2018-12-14
ITG;2018-11-26;0.07;2018-12-17
JNJ;2018-11-26;0.9;2018-12-11
KEY;2018-11-26;0.17;2018-12-14
NNA;2018-11-26;0.02;2018-12-05
SPB;2018-11-26;0.42;2018-12-18
SWKS;2018-11-26;0.38;2018-12-18
UVE;2018-11-26;0.29;2018-12-04
WLK;2018-11-26;0.25;2018-12-11
YUMC;2018-11-26;0.12;2018-12-18
